%YAML 1.1
%TAG !u! tag:unity3d.com,2011:
--- !u!1045 &1
EditorBuildSettings:
  m_ObjectHideFlags: 0
  serializedVersion: 2
  m_Scenes:
  - enabled: 1
    path: Assets/Scenes/SampleScene.unity
    guid: 9fc0d4010bbf28b4594072e72b8655ab
  - enabled: 1
    path: Assets/Scenes/Laberinto.unity
    guid: dbbcc0767f320a646b795b6fb891bece
  - enabled: 1
    path: Assets/Scenes/GameOver.unity
    guid: 92ec5b2e31066584192c55d419de4771
  - enabled: 1
    path: Assets/Scenes/Logrado.unity
    guid: 9926037478ea83f45a474c0ed98fa1b4
  m_configObjects: {}
